messy(practice) – Manal’s blog
…
tidyr::drop_na(Messy)

# A tibble: 290 × 8
   species island      bill_len bill_dep flipper_len body_mass sex     year
   <chr>   <chr>          <dbl>    <dbl>       <dbl>     <dbl> <chr>  <dbl>
 1 Adelie  " "              391      187         181      3750 male    2007
 2 Adelie  "Torgersen"      395      174         186      3800 female  2007
 3 Adelie  "Torgersen"      403      180         195      3250 female  2007
 4 Adelie  "Torgersen"      393      206         190      3650 male    2007
 5 Adelie  "Torgersen"      389      178         181      3625 female  2007
 6 Adelie  " "              392      196         195      4675 male    2007
 7 Adelie  "Torgersen"      411      176         182      3200 female  2007
 8 Adelie  "Torgersen"      386      212         191      3800 male    2007
 9 Adelie  "Torgersen"      366      178         185      3700 female  2007
10 Adelie  "Torgersen"      387      190         195      3450 female  2007
# ℹ 280 more rows

Messy_modified <- Messy %>% 
replace_with_na_all(condition=~.x %in% c(" ") ) %>% tidyr::drop_na()

Messy_modified

# A tibble: 239 × 8
   species island    bill_len bill_dep flipper_len body_mass sex     year
   <chr>   <chr>        <dbl>    <dbl>       <dbl>     <dbl> <chr>  <dbl>
 1 Adelie  Torgersen      395      174         186      3800 female  2007
 2 Adelie  Torgersen      403      180         195      3250 female  2007
 3 Adelie  Torgersen      393      206         190      3650 male    2007
 4 Adelie  Torgersen      389      178         181      3625 female  2007
 5 Adelie  Torgersen      411      176         182      3200 female  2007
 6 Adelie  Torgersen      386      212         191      3800 male    2007
 7 Adelie  Torgersen      366      178         185      3700 female  2007
 8 Adelie  Torgersen      387      190         195      3450 female  2007
 9 Adelie  Torgersen      425      207         197      4500 male    2007
10 Adelie  Torgersen      344      184         184      3325 female  2007
# ℹ 229 more rows

Messy_modified2 <- Messy_modified %>% 
  mutate(species = as.factor(species),
         island = as.factor(island),
         sex = as.factor(sex)) %>% 
  
  dplyr::relocate(where(is.factor), .before=1)

  Messy_modified2

# A tibble: 239 × 8
   species island    sex    bill_len bill_dep flipper_len body_mass  year
   <fct>   <fct>     <fct>     <dbl>    <dbl>       <dbl>     <dbl> <dbl>
 1 Adelie  Torgersen female      395      174         186      3800  2007
 2 Adelie  Torgersen female      403      180         195      3250  2007
 3 Adelie  Torgersen male        393      206         190      3650  2007
 4 Adelie  Torgersen female      389      178         181      3625  2007
 5 Adelie  Torgersen female      411      176         182      3200  2007
 6 Adelie  Torgersen male        386      212         191      3800  2007
 7 Adelie  Torgersen female      366      178         185      3700  2007
 8 Adelie  Torgersen female      387      190         195      3450  2007
 9 Adelie  Torgersen male        425      207         197      4500  2007
10 Adelie  Torgersen female      344      184         184      3325  2007
# ℹ 229 more rows
…
