tvseries – Manal’s blog
…
ℹ Use `spec()` to retrieve the full column specification for this data.
ℹ Specify the column types or set `show_col_types = FALSE` to quiet this message.

Rows: 52
Columns: 5
$ name            <chr> "Diya", "Ihina", "Abhinav", "Nikhita", "Rishi", "Charv…
$ gender          <chr> "Female", "Female", "Male", "Female", "Male", "Female"…
$ friends         <dbl> 8.0, 7.0, 8.0, 7.0, 8.0, 6.0, 8.0, 4.0, 9.0, 7.0, NA, …
$ modern_family   <dbl> 9.0, 9.0, 10.0, 9.0, 6.0, 9.0, 7.5, 8.0, 8.0, 9.0, 9.5…
$ big_bang_theory <dbl> 9.0, 6.0, 7.0, 6.0, 5.0, 5.5, 9.0, 6.0, 5.0, 3.0, 6.0,…

Tvseries

# A tibble: 52 × 5
   name    gender friends modern_family big_bang_theory
   <chr>   <chr>    <dbl>         <dbl>           <dbl>
 1 Diya    Female       8           9               9  
 2 Ihina   Female       7           9               6  
 3 Abhinav Male         8          10               7  
 4 Nikhita Female       7           9               6  
 5 Rishi   Male         8           6               5  
 6 Charvi  Female       6           9               5.5
 7 Maya    Female       8           7.5             9  
 8 Anuva   Female       4           8               6  
 9 Shourya Male         9           8               5  
10 sarthak Male         7           9               3  
# ℹ 42 more rows
…
2.3% of the data is missing, We can do away with these.

Data Munging:

Tvseries_mod1 <- Tvseries %>% 
  mutate(across(where(is.character), as.factor)) %>% 
tidyr::drop_na()
Tvseries_mod1

# A tibble: 46 × 5
   name    gender friends modern_family big_bang_theory
   <fct>   <fct>    <dbl>         <dbl>           <dbl>
 1 Diya    Female       8           9               9  
 2 Ihina   Female       7           9               6  
 3 Abhinav Male         8          10               7  
 4 Nikhita Female       7           9               6  
 5 Rishi   Male         8           6               5  
 6 Charvi  Female       6           9               5.5
 7 Maya    Female       8           7.5             9  
 8 Anuva   Female       4           8               6  
 9 Shourya Male         9           8               5  
10 sarthak Male         7           9               3  
# ℹ 36 more rows

TVseries_mod2 <- Tvseries_mod1 %>%
  pivot_longer(
    cols = c("friends", "modern_family", "big_bang_theory"),
    names_to = "TVshow",
    values_to = "Rating"
  )

TVseries_mod2

# A tibble: 138 × 4
   name    gender TVshow          Rating
   <fct>   <fct>  <chr>            <dbl>
 1 Diya    Female friends              8
 2 Diya    Female modern_family        9
 3 Diya    Female big_bang_theory      9
 4 Ihina   Female friends              7
 5 Ihina   Female modern_family        9
 6 Ihina   Female big_bang_theory      6
 7 Abhinav Male   friends              8
 8 Abhinav Male   modern_family       10
 9 Abhinav Male   big_bang_theory      7
10 Nikhita Female friends              7
# ℹ 128 more rows
…
