A1 Part 2 – Manal’s blog
…
 select(-c(gender1, gender2, afam, hispanic, other)) %>% 
  mutate( morekids = as.factor(morekids),
          ethnicity = as.factor(ethnicity),
          children_gender = as.factor(children_gender)) %>% 
  dplyr::relocate(ethnicity, children_gender, work, morekids, .after=age) %>% 
rename("mother_age" = age,
       "work_weeks" = work,
       "havemorekids"= morekids)

Fertility_2

# A tibble: 254,654 × 6
   rownames mother_age ethnicity children_gender work_weeks havemorekids
      <dbl>      <dbl> <fct>     <fct>                <dbl> <fct>       
 1        1         27 Caucasian male-female              0 no          
 2        2         30 Caucasian female-male             30 no          
 3        3         27 Caucasian male-female              0 no          
 4        4         35 AFAM      male-female              0 no          
 5        5         30 Caucasian female-female           22 no          
 6        6         26 Caucasian male-female             40 no          
 7        7         29 Caucasian female-male              0 no          
 8        8         33 Caucasian male-male               52 no          
 9        9         29 Caucasian female-male              0 no          
10       10         27 Caucasian male-female              0 no          
# ℹ 254,644 more rows
…
