TattooAttractivity – Manal's blog
…
ℹ Use `spec()` to retrieve the full column specification for this data.
ℹ Specify the column types or set `show_col_types = FALSE` to quiet this message.

Rows: 40
Columns: 3
$ name              <chr> "Aadya", "Abhinav", "Aditya", "Akash", "Amit", "Amog…
$ gender            <chr> "F", "M", "M", "M", "M", "M", "M", "M", "M", "F", "M…
$ tattoo_attractive <chr> "Yes", "Yes", "No", "Yes", "No", "Yes", "Yes", "Yes"…

Tattoo

# A tibble: 40 × 3
   name    gender tattoo_attractive
   <chr>   <chr>  <chr>            
 1 Aadya   F      Yes              
 2 Abhinav M      Yes              
 3 Aditya  M      No               
 4 Akash   M      Yes              
 5 Amit    M      No               
 6 Amogh   M      Yes              
 7 Anurag  M      Yes              
 8 Arnav   M      Yes              
 9 Aryan   M      Yes              
10 Ashmita F      No               
# ℹ 30 more rows
…
