A2 part 2 Absenteeism (DataSetsVerse, EducationR) – Manal’s blog
…
absenteeism

# A tibble: 146 × 5
   eth   sex   age   lrn    days
   <fct> <fct> <fct> <fct> <int>
 1 A     M     F0    SL        2
 2 A     M     F0    SL       11
 3 A     M     F0    SL       14
 4 A     M     F0    AL        5
 5 A     M     F0    AL        5
 6 A     M     F0    AL       13
 7 A     M     F0    AL       20
 8 A     M     F0    AL       22
 9 A     M     F1    SL        6
10 A     M     F1    SL        6
# ℹ 136 more rows
…
lrn → learning_pace (clearer descriptor of what the variable measures)

days → days_absent (clearly shows these are absence days)

eth → ethnicity for clarity

absenteeism1 <- absenteeism %>%
  rename("ethnicity" = eth) %>%
  rename("learning_pace" = lrn) %>%
  rename("days_absent" = days) %>% 
  rename("grade_group" = age) 

absenteeism1

# A tibble: 146 × 5
   ethnicity sex   grade_group learning_pace days_absent
   <fct>     <fct> <fct>       <fct>               <int>
 1 A         M     F0          SL                      2
 2 A         M     F0          SL                     11
 3 A         M     F0          SL                     14
 4 A         M     F0          AL                      5
 5 A         M     F0          AL                      5
 6 A         M     F0          AL                     13
 7 A         M     F0          AL                     20
 8 A         M     F0          AL                     22
 9 A         M     F1          SL                      6
10 A         M     F1          SL                      6
# ℹ 136 more rows
…
The histogram confirms that Aboriginal students have a more dispersed, unpredictable attendance pattern, while Non-Aboriginal students follow a more concentrated, consistent pattern (most cluster at very low absences). The shape difference suggests differing attendance dynamics between ethnic groups.

Why do Non-Aboriginal students show more homogeneous patterns? More stable circumstances? Better support systems?

absenteeism1 %>% 
dplyr::count(ethnicity, sex, grade_group, learning_pace)

# A tibble: 28 × 5
   ethnicity sex   grade_group learning_pace     n
   <fct>     <fct> <fct>       <fct>         <int>
 1 A         F     F0          AL                4
 2 A         F     F0          SL                1
 3 A         F     F1          AL                5
 4 A         F     F1          SL               10
 5 A         F     F2          AL                1
 6 A         F     F2          SL                8
 7 A         F     F3          AL                9
 8 A         M     F0          AL                5
 9 A         M     F0          SL                3
10 A         M     F1          AL                2
# ℹ 18 more rows
…
