weeklyexpenses – Manal’s blog
…
Rows: 40
Columns: 6
$ name                        <chr> "Radha", "Prerana", "Chris", "Nireeksha", …
$ gender                      <chr> "Female", "Female", "Male", "Female", "Mal…
$ total_expenditure_last_week <dbl> 2000.0, 1200.0, 15000.0, 3620.0, 560.0, 22…
$ x4                          <lgl> NA, NA, NA, NA, NA, NA, NA, NA, NA, NA, NA…
$ x5                          <lgl> NA, NA, NA, NA, NA, NA, NA, NA, NA, NA, NA…
$ x6                          <lgl> NA, NA, NA, NA, NA, NA, NA, NA, NA, NA, NA…

Weeklyexp

# A tibble: 40 × 6
   name      gender total_expenditure_last_week x4    x5    x6   
   <chr>     <chr>                        <dbl> <lgl> <lgl> <lgl>
 1 Radha     Female                        2000 NA    NA    NA   
 2 Prerana   Female                        1200 NA    NA    NA   
 3 Chris     Male                         15000 NA    NA    NA   
 4 Nireeksha Female                        3620 NA    NA    NA   
 5 Supraj    Male                           560 NA    NA    NA   
 6 Adit      Male                          2200 NA    NA    NA   
 7 Shweta    Female                        1500 NA    NA    NA   
 8 Diya      Female                        1206 NA    NA    NA   
 9 Kshama    Female                        1400 NA    NA    NA   
10 Savannah  Female                        2500 NA    NA    NA   
# ℹ 30 more rows
…
Data Munging:

There are a few extra columns named “x4”, “x5” and “x6”; let us remove those:

Weeklyexp1 <- Weeklyexp %>% 
  select(-c(x4, x5, x6)) %>% 
  
    mutate(across(where(is.character), as.factor)) %>% 
  tidyr::drop_na()
Weeklyexp1

# A tibble: 40 × 3
   name      gender total_expenditure_last_week
   <fct>     <fct>                        <dbl>
 1 Radha     Female                        2000
 2 Prerana   Female                        1200
 3 Chris     Male                         15000
 4 Nireeksha Female                        3620
 5 Supraj    Male                           560
 6 Adit      Male                          2200
 7 Shweta    Female                        1500
 8 Diya      Female                        1206
 9 Kshama    Female                        1400
10 Savannah  Female                        2500
# ℹ 30 more rows
…
