A2 Part 3 cuisines – Manal’s blog
…
cuisines1

# A tibble: 2,218 × 17
   name     country url   author date_published ingredients calories   fat carbs
   <chr>    <chr>   <chr> <chr>  <date>         <chr>          <dbl> <dbl> <dbl>
 1 Saganak… Greek   http… John … 2024-02-07     1 (4 ounce…      391    25    15
 2 Coney I… Jewish  http… John … 2024-11-26     2 ¾ cups a…      301    17    31
 3 Diana's… Austra… http… CHIPP… 2022-07-14     1 ½ cups w…       64     3     9
 4 Chilean… Chilean http… Heidi  2025-01-31     ½ cup chop…      106     9     7
 5 Tex-Mex… Tex-Mex http… Ann    2025-02-18     2 cups all…      449    23    58
 6 Newfoun… Canadi… http… MomWh… 2022-08-12     1 (3 pound…      958    24   144
 7 Pasta e… Italian http… Buckw… 2023-12-12     1 cup dry …      378    10    59
 8 Danish … Danish  http… TheOt… 2020-06-19     4 cups all…       90     5    10
 9 Lemon P… Amish … http… Laura… 2025-01-21     2 cups all…      157     6    25
10 Pan con… Spanish http… Luis … 2025-06-02     1 large to…      322    16    39
# ℹ 2,208 more rows
# ℹ 8 more variables: protein <dbl>, avg_rating <dbl>, total_ratings <dbl>,
#   reviews <dbl>, prep_time <dbl>, cook_time <dbl>, total_time <dbl>,
#   servings <dbl>
…
Observations:

Several entries in the calories, fat, carbs, avg_rating, total_ratings, and reviews columns contained missing values. Although removing them could slightly reduce representation across cuisines, the missing data accounted for only about 1.2% of the dataset, so we chose to drop these rows to maintain data quality and consistency.

Dropping the NA’s:

cuisines2 <- cuisines1 %>% 
tidyr::drop_na() 
cuisines2

# A tibble: 2,058 × 17
   name     country url   author date_published ingredients calories   fat carbs
   <chr>    <chr>   <chr> <chr>  <date>         <chr>          <dbl> <dbl> <dbl>
 1 Saganak… Greek   http… John … 2024-02-07     1 (4 ounce…      391    25    15
 2 Coney I… Jewish  http… John … 2024-11-26     2 ¾ cups a…      301    17    31
 3 Diana's… Austra… http… CHIPP… 2022-07-14     1 ½ cups w…       64     3     9
 4 Chilean… Chilean http… Heidi  2025-01-31     ½ cup chop…      106     9     7
 5 Tex-Mex… Tex-Mex http… Ann    2025-02-18     2 cups all…      449    23    58
 6 Newfoun… Canadi… http… MomWh… 2022-08-12     1 (3 pound…      958    24   144
 7 Pasta e… Italian http… Buckw… 2023-12-12     1 cup dry …      378    10    59
 8 Lemon P… Amish … http… Laura… 2025-01-21     2 cups all…      157     6    25
 9 Pan con… Spanish http… Luis … 2025-06-02     1 large to…      322    16    39
10 Traci's… Filipi… http… Traci… 2022-08-28     2 tablespo…        4     0     1
# ℹ 2,048 more rows
# ℹ 8 more variables: protein <dbl>, avg_rating <dbl>, total_ratings <dbl>,
#   reviews <dbl>, prep_time <dbl>, cook_time <dbl>, total_time <dbl>,
#   servings <dbl>

160 rows were removed out of the 2218 entries through this process.

cuisines2 %>% 
  dplyr::count(country, sort= TRUE)

# A tibble: 49 × 2
   country                          n
   <chr>                        <int>
 1 Canadian                        66
 2 Chinese                         64
 3 Filipino                        64
 4 Indian                          64
 5 Cuban                           63
 6 Russian                         63
 7 Soul Food                       63
 8 French                          61
 9 Australian and New Zealander    60
10 Cajun and Creole                60
# ℹ 39 more rows
…
Of the 49 cuisine types in the dataset, 40 represent countries while 9 represent non-country categories (religious/cultural groups, regional cuisines, and cuisine styles).

The original “country” label was misleading since the data includes not just countries, but also religious groups (Jewish), cultural groups (Amish and Mennonite), regional cuisines (Tex-Mex, Southern Recipes), and cuisine styles (Soul Food). We renamed it to “cuisines_type” because users searching for recipes think in terms of cuisine styles rather than geographic or cultural distinctions.

The top cuisine types by recipe count are Canadian (66), Chinese (64), Filipino (64), Indian (64), Cuban (63), Russian (63), Soul Food (63), French (61), Australian and New Zealander (60), Cajun and Creole (60), Jewish (60), and Polish (60).

renaming country to cuisine_type:

cuisines3 <- cuisines2 %>% 
dplyr::rename("cuisines_type" = country)

cuisines3

# A tibble: 2,058 × 17
   name     cuisines_type url   author date_published ingredients calories   fat
   <chr>    <chr>         <chr> <chr>  <date>         <chr>          <dbl> <dbl>
 1 Saganak… Greek         http… John … 2024-02-07     1 (4 ounce…      391    25
 2 Coney I… Jewish        http… John … 2024-11-26     2 ¾ cups a…      301    17
 3 Diana's… Australian a… http… CHIPP… 2022-07-14     1 ½ cups w…       64     3
 4 Chilean… Chilean       http… Heidi  2025-01-31     ½ cup chop…      106     9
 5 Tex-Mex… Tex-Mex       http… Ann    2025-02-18     2 cups all…      449    23
 6 Newfoun… Canadian      http… MomWh… 2022-08-12     1 (3 pound…      958    24
 7 Pasta e… Italian       http… Buckw… 2023-12-12     1 cup dry …      378    10
 8 Lemon P… Amish and Me… http… Laura… 2025-01-21     2 cups all…      157     6
 9 Pan con… Spanish       http… Luis … 2025-06-02     1 large to…      322    16
10 Traci's… Filipino      http… Traci… 2022-08-28     2 tablespo…        4     0
# ℹ 2,048 more rows
# ℹ 9 more variables: carbs <dbl>, protein <dbl>, avg_rating <dbl>,
#   total_ratings <dbl>, reviews <dbl>, prep_time <dbl>, cook_time <dbl>,
#   total_time <dbl>, servings <dbl>

Checking for dates published:

cuisines3 %>% 
  dplyr::count(date_published)

# A tibble: 710 × 2
   date_published     n
   <date>         <int>
 1 2009-02-09         1
 2 2011-02-11         1
 3 2011-10-19         1
 4 2013-06-20         1
 5 2014-06-10         1
 6 2017-04-05         2
 7 2017-11-09         1
 8 2017-12-21         1
 9 2018-03-21         6
10 2018-06-08         5
# ℹ 700 more rows
…
From this, we are sure that the dataset contains not only normal portioned dishes but also seasonings and condiments. Could drinks also come under small caloried items?

cuisines3 %>% 
  filter(grepl("drink|beverage|smoothie|juice|coffee|tea|cocktail|shake|lemonade|agua|lassi", 
               name, ignore.case = TRUE)) %>% 
  select(name, cuisines_type, calories) %>% 
  arrange(calories)

# A tibble: 66 × 3
   name                          cuisines_type    calories
   <chr>                         <chr>               <dbl>
 1 Chinese Steamed Buns          Chinese                44
 2 Brazilian Coffee Cookies      Brazilian              49
 3 Indian Lassi                  Indian                 50
 4 Thai Coffee                   Thai                   64
 5 Chinese Tea Eggs              Chinese                75
 6 Swedish Tea Ring              Scandinavian           83
 7 Russian Tea Cakes             Russian               101
 8 Vietnamese Iced Coffee        Vietnamese            129
 9 Sweet Tea Peaches             Southern Recipes      131
10 Refreshing Brazilian Lemonade Brazilian             145
# ℹ 56 more rows
…
