UFO sightings – Manal’s blog
…
ufo_sightings <- read_csv("~/Documents/irritating Class FOSEDA/Manal's blog/posts/data/ufosightings.csv") %>% 
janitor::clean_names(case = "snake")

Rows: 60632 Columns: 16
── Column specification ────────────────────────────────────────────────────────
Delimiter: ","
chr  (5): Location.City, Location.State, Location.Country, Data.Shape, Data....
dbl (11): Data.Encounter duration, Location.Coordinates.Latitude, Location.C...

ℹ Use `spec()` to retrieve the full column specification for this data.
ℹ Specify the column types or set `show_col_types = FALSE` to quiet this message.

ufo_sightings

# A tibble: 60,632 × 16
   location_city location_state location_country data_shape
   <chr>         <chr>          <chr>            <chr>     
 1 anchor point  AK             US               disk      
 2 anchorage     AK             US               changing  
 3 anchorage     AK             US               changing  
 4 anchorage     AK             US               cigar     
 5 anchorage     AK             US               circle    
 6 anchorage     AK             US               circle    
 7 anchorage     AK             US               circle    
 8 anchorage     AK             US               circle    
 9 anchorage     AK             US               circle    
10 anchorage     AK             US               circle    
# ℹ 60,622 more rows
# ℹ 12 more variables: data_encounter_duration <dbl>,
#   data_description_excerpt <chr>, location_coordinates_latitude <dbl>,
#   location_coordinates_longitude <dbl>, dates_sighted_year <dbl>,
#   dates_sighted_month <dbl>, date_sighted_day <dbl>,
#   dates_sighted_hour <dbl>, dates_sighted_minute <dbl>,
#   dates_documented_year <dbl>, dates_documented_month <dbl>, …
…
Sampling 60,000 entries due to the vastness of the data set. From the results, we infer that there is no missing data.

Arranging the Data

Step 1 : Munging the qualitative variables into factors

ufo_mod1 <- ufo_sightings %>% 
mutate(location_city = as.factor(location_city),
location_state = as.factor(location_state),
location_country  = as.factor(location_country),
data_shape = as.factor(data_shape)
)
ufo_mod1

# A tibble: 60,632 × 16
   location_city location_state location_country data_shape
   <fct>         <fct>          <fct>            <fct>     
 1 anchor point  AK             US               disk      
 2 anchorage     AK             US               changing  
 3 anchorage     AK             US               changing  
 4 anchorage     AK             US               cigar     
 5 anchorage     AK             US               circle    
 6 anchorage     AK             US               circle    
 7 anchorage     AK             US               circle    
 8 anchorage     AK             US               circle    
 9 anchorage     AK             US               circle    
10 anchorage     AK             US               circle    
# ℹ 60,622 more rows
# ℹ 12 more variables: data_encounter_duration <dbl>,
#   data_description_excerpt <chr>, location_coordinates_latitude <dbl>,
#   location_coordinates_longitude <dbl>, dates_sighted_year <dbl>,
#   dates_sighted_month <dbl>, date_sighted_day <dbl>,
#   dates_sighted_hour <dbl>, dates_sighted_minute <dbl>,
#   dates_documented_year <dbl>, dates_documented_month <dbl>, …
…
UFO shape (factor)

Encounter length

Encounter duration

Documented date: Doc. Date, Doc. Month, Doc. Year

Description

ufo_mod2 <- ufo_mod1 %>% 
dplyr:: relocate(date_sighted_day, dates_sighted_month, dates_sighted_year, dates_sighted_hour, dates_sighted_minute, location_coordinates_latitude, location_coordinates_longitude, location_state,location_country, data_shape , dates_documented_day, dates_documented_month, dates_documented_year, data_description_excerpt)
ufo_mod2

# A tibble: 60,632 × 16
   date_sighted_day dates_sighted_month dates_sighted_year dates_sighted_hour
              <dbl>               <dbl>              <dbl>              <dbl>
 1               24                   5               2005                 18
 2               31                  12               2000                 21
 3               23                  10               2006                 21
 4               29                   3               2014                 20
 5               21                  10               2011                 21
 6               30                   8               1972                  1
 7               23                  10               2006                 21
 8               23                  10               2013                 20
 9               31                  10               1998                 10
10               23                  12               2013                 22
# ℹ 60,622 more rows
# ℹ 12 more variables: dates_sighted_minute <dbl>,
#   location_coordinates_latitude <dbl>, location_coordinates_longitude <dbl>,
#   location_state <fct>, location_country <fct>, data_shape <fct>,
#   dates_documented_day <dbl>, dates_documented_month <dbl>,
#   dates_documented_year <dbl>, data_description_excerpt <chr>,
#   location_city <fct>, data_encounter_duration <dbl>
…
