weirddad – Manal’s blog
…
ℹ Use `spec()` to retrieve the full column specification for this data.
ℹ Specify the column types or set `show_col_types = FALSE` to quiet this message.

Rows: 65
Columns: 4
$ gender       <chr> "F", "F", "M", "F", "M", "M", "M", "M", "F", "M", "F", "M…
$ college      <chr> "SMI", "SMI", "SMI", "SMI", "MIT", "MIT", "MIT", "SMI", "…
$ is_dad_weird <chr> "No", "No", "No", "Yes", "No", "No", "No", "No", "Yes", "…
$ name         <chr> "Manya", "Sradha", "Arun", "Nidhi", "Shaurya", "Pratham",…

Weirddad

# A tibble: 65 × 4
   gender college is_dad_weird name   
   <chr>  <chr>   <chr>        <chr>  
 1 F      SMI     No           Manya  
 2 F      SMI     No           Sradha 
 3 M      SMI     No           Arun   
 4 F      SMI     Yes          Nidhi  
 5 M      MIT     No           Shaurya
 6 M      MIT     No           Pratham
 7 M      MIT     No           Jeevan 
 8 M      SMI     No           Dhruv  
 9 F      SMI     Yes          Aakrati
10 M      SMI     Yes          Aakrsh 
# ℹ 55 more rows
…
Only 0.4% of data is missing, can do away with the data

Munging the Data:

weirddad_mod <- Weirddad %>% 
  mutate(across(where(is.character), as.factor)) %>% 
  tidyr::drop_na()
weirddad_mod

# A tibble: 64 × 4
   gender college is_dad_weird name   
   <fct>  <fct>   <fct>        <fct>  
 1 F      SMI     No           Manya  
 2 F      SMI     No           Sradha 
 3 M      SMI     No           Arun   
 4 F      SMI     Yes          Nidhi  
 5 M      MIT     No           Shaurya
 6 M      MIT     No           Pratham
 7 M      MIT     No           Jeevan 
 8 M      SMI     No           Dhruv  
 9 F      SMI     Yes          Aakrati
10 M      SMI     Yes          Aakrsh 
# ℹ 54 more rows
…
